module gitlab.com/neckhair/bgg

go 1.20

require (
	github.com/matryer/is v1.4.1
	github.com/spf13/cobra v1.7.0
	github.com/stretchr/testify v1.8.3
)

require (
	github.com/davecgh/go-spew v1.1.1 // indirect
	github.com/inconshreveable/mousetrap v1.1.0 // indirect
	github.com/pmezard/go-difflib v1.0.0 // indirect
	github.com/spf13/pflag v1.0.5 // indirect
	github.com/stretchr/objx v0.5.0 // indirect
	gopkg.in/yaml.v3 v3.0.1 // indirect
)
